﻿<?xml version="1.0" encoding="UTF-8"?>
<TestRun id="876168a4-82b7-449a-9df5-7bcbc4e8e8a0" name="Dave@CMGELPC0004 2010-01-29 12:49:32" runUser="CMGELPC0004\Dave" xmlns="http://microsoft.com/schemas/VisualStudio/TeamTest/2010">
  <TestSettings name="Local" id="d09a735b-7d26-4516-999a-c104552b8246">
    <Description>These are default test settings for a local test run.</Description>
    <Deployment enabled="false" runDeploymentRoot="Dave_CMGELPC0004 2010-01-29 12_49_32">
      <DeploymentItem filename="C:\Docs\WPF\Modules\Module 07\Lab 07\Solution\AdventureWorks.WorkOrders\AdventureWorks.Resources\bin\Debug\AdventureWorks.Resources.dll" />
      <DeploymentItem filename="C:\Docs\WPF\Modules\Module 07\Lab 07\Solution\AdventureWorks.WorkOrders\AdventureWorks.WorkOrders\bin\Debug\AdventureWorks.WorkOrders.exe" />
      <DeploymentItem filename="C:\Docs\WPF\Modules\Module 07\Lab 07\Solution\AdventureWorks.WorkOrders\AdventureWorks.Model\bin\Debug\AdventureWorks.Model.dll" />
    </Deployment>
    <Execution>
      <TestTypeSpecific />
      <AgentRule name="Execution Agents">
      </AgentRule>
    </Execution>
  </TestSettings>
  <Times creation="2010-01-29T12:49:32.1521991+00:00" queuing="2010-01-29T12:49:33.8292950+00:00" start="2010-01-29T12:49:34.0953102+00:00" finish="2010-01-29T12:51:08.1736912+00:00" />
  <ResultSummary outcome="Error">
    <Counters total="1" executed="1" error="0" failed="0" timeout="0" aborted="1" inconclusive="0" passedButRunAborted="0" notRunnable="0" notExecuted="0" disconnected="0" warning="0" passed="0" completed="0" inProgress="0" pending="0" />
    <RunInfos>
      <RunInfo computerName="CMGELPC0004" outcome="Error" timestamp="2010-01-29T12:51:08.1576903+00:00">
        <Text>Test host process exited unexpectedly.</Text>
      </RunInfo>
    </RunInfos>
  </ResultSummary>
  <TestDefinitions>
    <UnitTest name="SearchProductsDisabledTest" storage="c:\docs\wpf\modules\module 07\lab 07\solution\adventureworks.workorders\adventureworks.tests\bin\debug\adventureworks.tests.dll" id="3f66ba00-04f5-ede2-f6a5-9fdee508a5b0">
      <Execution id="3f6ebe55-b72d-4df8-845e-f237880c21d4" />
      <TestMethod codeBase="C:/Docs/WPF/Modules/Module 07/Lab 07/Solution/AdventureWorks.WorkOrders/AdventureWorks.Tests/bin/Debug/AdventureWorks.Tests.DLL" adapterTypeName="Microsoft.VisualStudio.TestTools.TestTypes.Unit.UnitTestAdapter, Microsoft.VisualStudio.QualityTools.Tips.UnitTest.Adapter, Version=10.0.0.0, Culture=neutral, PublicKeyToken=b03f5f7f11d50a3a" className="AdventureWorks.Tests.MainWindowViewTest, AdventureWorks.Tests, Version=1.0.0.0, Culture=neutral, PublicKeyToken=null" name="SearchProductsDisabledTest" />
    </UnitTest>
  </TestDefinitions>
  <TestLists>
    <TestList name="Results Not in a List" id="8c84fa94-04c1-424b-9868-57a2d4851a1d" />
    <TestList name="All Loaded Results" id="19431567-8539-422a-85d7-44ee4e166bda" />
  </TestLists>
  <TestEntries>
    <TestEntry testId="3f66ba00-04f5-ede2-f6a5-9fdee508a5b0" executionId="3f6ebe55-b72d-4df8-845e-f237880c21d4" testListId="8c84fa94-04c1-424b-9868-57a2d4851a1d" />
  </TestEntries>
  <Results>
    <UnitTestResult executionId="3f6ebe55-b72d-4df8-845e-f237880c21d4" testId="3f66ba00-04f5-ede2-f6a5-9fdee508a5b0" testName="SearchProductsDisabledTest" computerName="CMGELPC0004" duration="00:01:33.8923703" startTime="2010-01-29T12:49:34.2813209+00:00" endTime="2010-01-29T12:51:08.1736912+00:00" testType="13cdc9d9-ddb5-4fa4-a97d-d965ccfc6d4b" outcome="Aborted" testListId="8c84fa94-04c1-424b-9868-57a2d4851a1d" relativeResultsDirectory="3f6ebe55-b72d-4df8-845e-f237880c21d4">
    </UnitTestResult>
  </Results>
</TestRun>