﻿<?xml version="1.0" encoding="UTF-8"?>
<TestRun id="f3e5bd67-4a9a-4735-9c52-cef9fc01f76d" name="Dave@CMGELPC0004 2010-01-12 17:19:40" runUser="CMGELPC0004\Dave" xmlns="http://microsoft.com/schemas/VisualStudio/TeamTest/2010">
  <TestSettings name="Local" id="d09a735b-7d26-4516-999a-c104552b8246">
    <Description>These are default test settings for a local test run.</Description>
    <Deployment enabled="false" runDeploymentRoot="Dave_CMGELPC0004 2010-01-12 17_19_40">
      <DeploymentItem filename="C:\Docs\WPF\Modules\Module 05\Lab 05\Solution\AdventureWorks.WorkOrders\AdventureWorks.Model\bin\Debug\AdventureWorks.Model.dll" />
      <DeploymentItem filename="C:\Docs\WPF\Modules\Module 05\Lab 05\Solution\AdventureWorks.WorkOrders\AdventureWorks.Resources\bin\Debug\AdventureWorks.Resources.dll" />
      <DeploymentItem filename="C:\Docs\WPF\Modules\Module 05\Lab 05\Solution\AdventureWorks.WorkOrders\AdventureWorks.WorkOrders\bin\Debug\AdventureWorks.WorkOrders.exe" />
    </Deployment>
    <Execution>
      <TestTypeSpecific />
      <AgentRule name="Execution Agents">
      </AgentRule>
    </Execution>
  </TestSettings>
  <Times creation="2010-01-12T17:19:40.7431704+00:00" queuing="2010-01-12T17:19:41.0101857+00:00" start="2010-01-12T17:19:41.1011909+00:00" finish="2010-01-12T17:19:42.6632803+00:00" />
  <ResultSummary outcome="Error">
    <Counters total="5" executed="5" passed="5" error="0" failed="0" timeout="0" aborted="0" inconclusive="0" passedButRunAborted="0" notRunnable="0" notExecuted="0" disconnected="0" warning="0" completed="0" inProgress="0" pending="0" />
    <RunInfos>
      <RunInfo computerName="CMGELPC0004" outcome="Error" timestamp="2010-01-12T17:19:42.5722751+00:00">
        <Text>One of the background threads threw exception: 
System.Runtime.InteropServices.InvalidComObjectException: COM object that has been separated from its underlying RCW cannot be used.
   at System.Windows.Input.TextServicesContext.StopTransitoryExtension()
   at System.Windows.Input.TextServicesContext.Uninitialize(Boolean appDomainShutdown)
   at System.Windows.Input.TextServicesContext.TextServicesContextShutDownListener.OnShutDown(Object target, Object sender, EventArgs e)
   at MS.Internal.ShutDownListener.HandleShutDown(Object sender, EventArgs e)</Text>
      </RunInfo>
    </RunInfos>
  </ResultSummary>
  <TestDefinitions>
    <UnitTest name="ProductsTest" storage="c:\docs\wpf\modules\module 05\lab 05\solution\adventureworks.workorders\adventureworks.tests\bin\debug\adventureworks.tests.dll" id="4bf38fb8-dae3-053e-dc6c-a3ad870c146f">
      <Execution id="4fc3a166-d495-477d-988e-9011d718d7e8" />
      <TestMethod codeBase="C:/Docs/WPF/Modules/Module 05/Lab 05/Solution/AdventureWorks.WorkOrders/AdventureWorks.Tests/bin/Debug/AdventureWorks.Tests.DLL" adapterTypeName="Microsoft.VisualStudio.TestTools.TestTypes.Unit.UnitTestAdapter, Microsoft.VisualStudio.QualityTools.Tips.UnitTest.Adapter, Version=10.0.0.0, Culture=neutral, PublicKeyToken=b03f5f7f11d50a3a" className="AdventureWorks.Tests.MainWindowViewModelTest, AdventureWorks.Tests, Version=1.0.0.0, Culture=neutral, PublicKeyToken=null" name="ProductsTest" />
    </UnitTest>
    <UnitTest name="WorkOrdersTest" storage="c:\docs\wpf\modules\module 05\lab 05\solution\adventureworks.workorders\adventureworks.tests\bin\debug\adventureworks.tests.dll" id="7b4ea7f9-2dc9-4ea2-de12-27732c616702">
      <Execution id="fe7a171a-8ffe-4e87-8866-7f48ef4bd3d1" />
      <TestMethod codeBase="C:/Docs/WPF/Modules/Module 05/Lab 05/Solution/AdventureWorks.WorkOrders/AdventureWorks.Tests/bin/Debug/AdventureWorks.Tests.DLL" adapterTypeName="Microsoft.VisualStudio.TestTools.TestTypes.Unit.UnitTestAdapter, Microsoft.VisualStudio.QualityTools.Tips.UnitTest.Adapter, Version=10.0.0.0, Culture=neutral, PublicKeyToken=b03f5f7f11d50a3a" className="AdventureWorks.Tests.MainWindowViewModelTest, AdventureWorks.Tests, Version=1.0.0.0, Culture=neutral, PublicKeyToken=null" name="WorkOrdersTest" />
    </UnitTest>
    <UnitTest name="TestTextEntry" storage="c:\docs\wpf\modules\module 05\lab 05\solution\adventureworks.workorders\adventureworks.tests\bin\debug\adventureworks.tests.dll" id="64dfeb85-35c0-f930-5e68-edfeefdeb622">
      <Execution id="99905b7e-5e1c-4078-abf5-03e6b578b0a5" />
      <TestMethod codeBase="C:/Docs/WPF/Modules/Module 05/Lab 05/Solution/AdventureWorks.WorkOrders/AdventureWorks.Tests/bin/Debug/AdventureWorks.Tests.DLL" adapterTypeName="Microsoft.VisualStudio.TestTools.TestTypes.Unit.UnitTestAdapter, Microsoft.VisualStudio.QualityTools.Tips.UnitTest.Adapter, Version=10.0.0.0, Culture=neutral, PublicKeyToken=b03f5f7f11d50a3a" className="AdventureWorks.Tests.MainWindowViewTest, AdventureWorks.Tests, Version=1.0.0.0, Culture=neutral, PublicKeyToken=null" name="TestTextEntry" />
    </UnitTest>
    <UnitTest name="TestWindowResize" storage="c:\docs\wpf\modules\module 05\lab 05\solution\adventureworks.workorders\adventureworks.tests\bin\debug\adventureworks.tests.dll" id="7cf06341-f03b-6635-27f4-efa54fa2939c">
      <Execution id="b8414dbd-a5f4-45ad-8aa7-586e52b74043" />
      <TestMethod codeBase="C:/Docs/WPF/Modules/Module 05/Lab 05/Solution/AdventureWorks.WorkOrders/AdventureWorks.Tests/bin/Debug/AdventureWorks.Tests.DLL" adapterTypeName="Microsoft.VisualStudio.TestTools.TestTypes.Unit.UnitTestAdapter, Microsoft.VisualStudio.QualityTools.Tips.UnitTest.Adapter, Version=10.0.0.0, Culture=neutral, PublicKeyToken=b03f5f7f11d50a3a" className="AdventureWorks.Tests.MainWindowViewTest, AdventureWorks.Tests, Version=1.0.0.0, Culture=neutral, PublicKeyToken=null" name="TestWindowResize" />
    </UnitTest>
    <UnitTest name="WorkOrdersRoutingTest" storage="c:\docs\wpf\modules\module 05\lab 05\solution\adventureworks.workorders\adventureworks.tests\bin\debug\adventureworks.tests.dll" id="4bc80558-d7da-6008-cccf-ab8baeebdf75">
      <Execution id="83c11eba-6ccd-4bf1-81fa-82360411396c" />
      <TestMethod codeBase="C:/Docs/WPF/Modules/Module 05/Lab 05/Solution/AdventureWorks.WorkOrders/AdventureWorks.Tests/bin/Debug/AdventureWorks.Tests.DLL" adapterTypeName="Microsoft.VisualStudio.TestTools.TestTypes.Unit.UnitTestAdapter, Microsoft.VisualStudio.QualityTools.Tips.UnitTest.Adapter, Version=10.0.0.0, Culture=neutral, PublicKeyToken=b03f5f7f11d50a3a" className="AdventureWorks.Tests.MainWindowViewModelTest, AdventureWorks.Tests, Version=1.0.0.0, Culture=neutral, PublicKeyToken=null" name="WorkOrdersRoutingTest" />
    </UnitTest>
  </TestDefinitions>
  <TestLists>
    <TestList name="Results Not in a List" id="8c84fa94-04c1-424b-9868-57a2d4851a1d" />
    <TestList name="All Loaded Results" id="19431567-8539-422a-85d7-44ee4e166bda" />
  </TestLists>
  <TestEntries>
    <TestEntry testId="4bc80558-d7da-6008-cccf-ab8baeebdf75" executionId="83c11eba-6ccd-4bf1-81fa-82360411396c" testListId="8c84fa94-04c1-424b-9868-57a2d4851a1d" />
    <TestEntry testId="4bf38fb8-dae3-053e-dc6c-a3ad870c146f" executionId="4fc3a166-d495-477d-988e-9011d718d7e8" testListId="8c84fa94-04c1-424b-9868-57a2d4851a1d" />
    <TestEntry testId="64dfeb85-35c0-f930-5e68-edfeefdeb622" executionId="99905b7e-5e1c-4078-abf5-03e6b578b0a5" testListId="8c84fa94-04c1-424b-9868-57a2d4851a1d" />
    <TestEntry testId="7b4ea7f9-2dc9-4ea2-de12-27732c616702" executionId="fe7a171a-8ffe-4e87-8866-7f48ef4bd3d1" testListId="8c84fa94-04c1-424b-9868-57a2d4851a1d" />
    <TestEntry testId="7cf06341-f03b-6635-27f4-efa54fa2939c" executionId="b8414dbd-a5f4-45ad-8aa7-586e52b74043" testListId="8c84fa94-04c1-424b-9868-57a2d4851a1d" />
  </TestEntries>
  <Results>
    <UnitTestResult executionId="83c11eba-6ccd-4bf1-81fa-82360411396c" testId="4bc80558-d7da-6008-cccf-ab8baeebdf75" testName="WorkOrdersRoutingTest" computerName="CMGELPC0004" duration="00:00:00.0317902" startTime="2010-01-12T17:19:41.1221921+00:00" endTime="2010-01-12T17:19:41.7412275+00:00" testType="13cdc9d9-ddb5-4fa4-a97d-d965ccfc6d4b" outcome="Passed" testListId="8c84fa94-04c1-424b-9868-57a2d4851a1d" relativeResultsDirectory="83c11eba-6ccd-4bf1-81fa-82360411396c">
    </UnitTestResult>
    <UnitTestResult executionId="4fc3a166-d495-477d-988e-9011d718d7e8" testId="4bf38fb8-dae3-053e-dc6c-a3ad870c146f" testName="ProductsTest" computerName="CMGELPC0004" duration="00:00:00.0022131" startTime="2010-01-12T17:19:41.7462278+00:00" endTime="2010-01-12T17:19:41.7532282+00:00" testType="13cdc9d9-ddb5-4fa4-a97d-d965ccfc6d4b" outcome="Passed" testListId="8c84fa94-04c1-424b-9868-57a2d4851a1d" relativeResultsDirectory="4fc3a166-d495-477d-988e-9011d718d7e8">
    </UnitTestResult>
    <UnitTestResult executionId="99905b7e-5e1c-4078-abf5-03e6b578b0a5" testId="64dfeb85-35c0-f930-5e68-edfeefdeb622" testName="TestTextEntry" computerName="CMGELPC0004" duration="00:00:00.4281938" startTime="2010-01-12T17:19:41.7552283+00:00" endTime="2010-01-12T17:19:42.1872530+00:00" testType="13cdc9d9-ddb5-4fa4-a97d-d965ccfc6d4b" outcome="Passed" testListId="8c84fa94-04c1-424b-9868-57a2d4851a1d" relativeResultsDirectory="99905b7e-5e1c-4078-abf5-03e6b578b0a5">
    </UnitTestResult>
    <UnitTestResult executionId="fe7a171a-8ffe-4e87-8866-7f48ef4bd3d1" testId="7b4ea7f9-2dc9-4ea2-de12-27732c616702" testName="WorkOrdersTest" computerName="CMGELPC0004" duration="00:00:00.0057747" startTime="2010-01-12T17:19:42.1952535+00:00" endTime="2010-01-12T17:19:42.2302555+00:00" testType="13cdc9d9-ddb5-4fa4-a97d-d965ccfc6d4b" outcome="Passed" testListId="8c84fa94-04c1-424b-9868-57a2d4851a1d" relativeResultsDirectory="fe7a171a-8ffe-4e87-8866-7f48ef4bd3d1">
    </UnitTestResult>
    <UnitTestResult executionId="b8414dbd-a5f4-45ad-8aa7-586e52b74043" testId="7cf06341-f03b-6635-27f4-efa54fa2939c" testName="TestWindowResize" computerName="CMGELPC0004" duration="00:00:00.1605610" startTime="2010-01-12T17:19:42.2442563+00:00" endTime="2010-01-12T17:19:42.4192663+00:00" testType="13cdc9d9-ddb5-4fa4-a97d-d965ccfc6d4b" outcome="Passed" testListId="8c84fa94-04c1-424b-9868-57a2d4851a1d" relativeResultsDirectory="b8414dbd-a5f4-45ad-8aa7-586e52b74043">
    </UnitTestResult>
  </Results>
</TestRun>