^E:\LABFILES\LAB 15\EX1\STARTER\ADVENTUREWORKS.PRODUCTINVENTORY\ADVENTUREWORKS.PRODUCTINVENTORY\PROPERTIES\RESOURCES.RESX|E:\LABFILES\LAB 15\EX1\STARTER\ADVENTUREWORKS.PRODUCTINVENTORY\ADVENTUREWORKS.PRODUCTINVENTORY\VIEWS\MAINVIEW.RESX|E:\LABFILES\LAB 15\EX1\STARTER\ADVENTUREWORKS.PRODUCTINVENTORY\ADVENTUREWORKS.PRODUCTINVENTORY\VIEWS\PRODUCTVIEW.RESX
E:\LABFILES\LAB 15\EX1\STARTER\ADVENTUREWORKS.PRODUCTINVENTORY\ADVENTUREWORKS.PRODUCTINVENTORY\OBJ\X86\DEBUG\ADVENTUREWORKS.PRODUCTINVENTORY.VIEWS.MAINVIEW.RESOURCES
E:\LABFILES\LAB 15\EX1\STARTER\ADVENTUREWORKS.PRODUCTINVENTORY\ADVENTUREWORKS.PRODUCTINVENTORY\OBJ\X86\DEBUG\ADVENTUREWORKS.PRODUCTINVENTORY.PROPERTIES.RESOURCES.RESOURCES
E:\LABFILES\LAB 15\EX1\STARTER\ADVENTUREWORKS.PRODUCTINVENTORY\ADVENTUREWORKS.PRODUCTINVENTORY\OBJ\X86\DEBUG\ADVENTUREWORKS.PRODUCTINVENTORY.VIEWS.PRODUCTVIEW.RESOURCES
^E:\LABFILES\LAB 15\EX1\CS\STARTER\ADVENTUREWORKS.PRODUCTINVENTORY\ADVENTUREWORKS.PRODUCTINVENTORY\PROPERTIES\RESOURCES.RESX|E:\LABFILES\LAB 15\EX1\CS\STARTER\ADVENTUREWORKS.PRODUCTINVENTORY\ADVENTUREWORKS.PRODUCTINVENTORY\VIEWS\MAINVIEW.RESX|E:\LABFILES\LAB 15\EX1\CS\STARTER\ADVENTUREWORKS.PRODUCTINVENTORY\ADVENTUREWORKS.PRODUCTINVENTORY\VIEWS\PRODUCTVIEW.RESX
E:\LABFILES\LAB 15\EX1\CS\STARTER\ADVENTUREWORKS.PRODUCTINVENTORY\ADVENTUREWORKS.PRODUCTINVENTORY\OBJ\X86\DEBUG\ADVENTUREWORKS.PRODUCTINVENTORY.PROPERTIES.RESOURCES.RESOURCES
E:\LABFILES\LAB 15\EX1\CS\STARTER\ADVENTUREWORKS.PRODUCTINVENTORY\ADVENTUREWORKS.PRODUCTINVENTORY\OBJ\X86\DEBUG\ADVENTUREWORKS.PRODUCTINVENTORY.VIEWS.MAINVIEW.RESOURCES
E:\LABFILES\LAB 15\EX1\CS\STARTER\ADVENTUREWORKS.PRODUCTINVENTORY\ADVENTUREWORKS.PRODUCTINVENTORY\OBJ\X86\DEBUG\ADVENTUREWORKS.PRODUCTINVENTORY.VIEWS.PRODUCTVIEW.RESOURCES
