﻿<?xml version="1.0" encoding="UTF-8"?>
<TestRun id="a97fa145-5942-4efc-b575-9f7e1dc6086c" name="Dave@CMGELPC0004 2010-01-12 17:25:38" runUser="CMGELPC0004\Dave" xmlns="http://microsoft.com/schemas/VisualStudio/TeamTest/2010">
  <TestSettings name="Local" id="d09a735b-7d26-4516-999a-c104552b8246">
    <Description>These are default test settings for a local test run.</Description>
    <Deployment enabled="false" runDeploymentRoot="Dave_CMGELPC0004 2010-01-12 17_25_38">
      <DeploymentItem filename="C:\Docs\WPF\Modules\Module 05\Lab 05\Solution\AdventureWorks.WorkOrders\AdventureWorks.Model\bin\Debug\AdventureWorks.Model.dll" />
      <DeploymentItem filename="C:\Docs\WPF\Modules\Module 05\Lab 05\Solution\AdventureWorks.WorkOrders\AdventureWorks.Resources\bin\Debug\AdventureWorks.Resources.dll" />
      <DeploymentItem filename="C:\Docs\WPF\Modules\Module 05\Lab 05\Solution\AdventureWorks.WorkOrders\AdventureWorks.WorkOrders\bin\Debug\AdventureWorks.WorkOrders.exe" />
    </Deployment>
    <Execution>
      <TestTypeSpecific />
      <AgentRule name="Execution Agents">
      </AgentRule>
    </Execution>
  </TestSettings>
  <Times creation="2010-01-12T17:25:38.4916325+00:00" queuing="2010-01-12T17:25:38.8376523+00:00" start="2010-01-12T17:25:38.8896553+00:00" finish="2010-01-12T17:27:28.0258975+00:00" />
  <ResultSummary outcome="Error">
    <Counters total="1" executed="1" passed="1" error="0" failed="0" timeout="0" aborted="0" inconclusive="0" passedButRunAborted="0" notRunnable="0" notExecuted="0" disconnected="0" warning="0" completed="0" inProgress="0" pending="0" />
    <RunInfos>
      <RunInfo computerName="CMGELPC0004" outcome="Error" timestamp="2010-01-12T17:25:40.1127252+00:00">
        <Text>One of the background threads threw exception: 
System.Runtime.InteropServices.InvalidComObjectException: COM object that has been separated from its underlying RCW cannot be used.
   at System.Windows.Input.TextServicesContext.StopTransitoryExtension()
   at System.Windows.Input.TextServicesContext.Uninitialize(Boolean appDomainShutdown)
   at System.Windows.Input.TextServicesContext.TextServicesContextShutDownListener.OnShutDown(Object target, Object sender, EventArgs e)
   at MS.Internal.ShutDownListener.HandleShutDown(Object sender, EventArgs e)</Text>
      </RunInfo>
    </RunInfos>
  </ResultSummary>
  <TestDefinitions>
    <UnitTest name="TestWindowResize" storage="c:\docs\wpf\modules\module 05\lab 05\solution\adventureworks.workorders\adventureworks.tests\bin\debug\adventureworks.tests.dll" id="7cf06341-f03b-6635-27f4-efa54fa2939c">
      <Execution id="ef7a88d8-0a93-4048-a400-c51c175fcf48" />
      <TestMethod codeBase="C:/Docs/WPF/Modules/Module 05/Lab 05/Solution/AdventureWorks.WorkOrders/AdventureWorks.Tests/bin/Debug/AdventureWorks.Tests.DLL" adapterTypeName="Microsoft.VisualStudio.TestTools.TestTypes.Unit.UnitTestAdapter, Microsoft.VisualStudio.QualityTools.Tips.UnitTest.Adapter, Version=10.0.0.0, Culture=neutral, PublicKeyToken=b03f5f7f11d50a3a" className="AdventureWorks.Tests.MainWindowViewTest, AdventureWorks.Tests, Version=1.0.0.0, Culture=neutral, PublicKeyToken=null" name="TestWindowResize" />
    </UnitTest>
  </TestDefinitions>
  <TestLists>
    <TestList name="Results Not in a List" id="8c84fa94-04c1-424b-9868-57a2d4851a1d" />
    <TestList name="All Loaded Results" id="19431567-8539-422a-85d7-44ee4e166bda" />
  </TestLists>
  <TestEntries>
    <TestEntry testId="7cf06341-f03b-6635-27f4-efa54fa2939c" executionId="ef7a88d8-0a93-4048-a400-c51c175fcf48" testListId="8c84fa94-04c1-424b-9868-57a2d4851a1d" />
  </TestEntries>
  <Results>
    <UnitTestResult executionId="ef7a88d8-0a93-4048-a400-c51c175fcf48" testId="7cf06341-f03b-6635-27f4-efa54fa2939c" testName="TestWindowResize" computerName="CMGELPC0004" duration="00:00:00.4329898" startTime="2010-01-12T17:25:38.9296575+00:00" endTime="2010-01-12T17:25:39.9437155+00:00" testType="13cdc9d9-ddb5-4fa4-a97d-d965ccfc6d4b" outcome="Passed" testListId="8c84fa94-04c1-424b-9868-57a2d4851a1d" relativeResultsDirectory="ef7a88d8-0a93-4048-a400-c51c175fcf48">
    </UnitTestResult>
  </Results>
</TestRun>