^E:\LABFILES\LAB 15\EX1\STARTER\ADVENTUREWORKS.PRODUCTINVENTORY\ADVENTUREWORKS.PRODUCTINVENTORY\VIEWS\MAINVIEW.RESX
^E:\LABFILES\LAB 15\EX1\STARTER\ADVENTUREWORKS.PRODUCTINVENTORY\ADVENTUREWORKS.PRODUCTINVENTORY\PROPERTIES\RESOURCES.RESX
E:\LABFILES\LAB 15\EX1\STARTER\ADVENTUREWORKS.PRODUCTINVENTORY\ADVENTUREWORKS.PRODUCTINVENTORY\RESOURCES\YELLOWGRID.PNG
^E:\LABFILES\LAB 15\EX1\STARTER\ADVENTUREWORKS.PRODUCTINVENTORY\ADVENTUREWORKS.PRODUCTINVENTORY\VIEWS\PRODUCTVIEW.RESX
^E:\LABFILES\LAB 15\EX1\CS\SOLUTION\ADVENTUREWORKS.PRODUCTINVENTORY\ADVENTUREWORKS.PRODUCTINVENTORY\VIEWS\MAINVIEW.RESX
C:\WINDOWS\ASSEMBLY\PUBPOL10.DAT
C:\WINDOWS\MICROSOFT.NET\ASSEMBLY\GAC_MSIL\MICROSOFT.BUILD.TASKS.V4.0\V4.0_4.0.0.0__B03F5F7F11D50A3A\MICROSOFT.BUILD.TASKS.V4.0.DLL
^E:\LABFILES\LAB 15\EX1\CS\SOLUTION\ADVENTUREWORKS.PRODUCTINVENTORY\ADVENTUREWORKS.PRODUCTINVENTORY\PROPERTIES\RESOURCES.RESX
E:\LABFILES\LAB 15\EX1\CS\SOLUTION\ADVENTUREWORKS.PRODUCTINVENTORY\ADVENTUREWORKS.PRODUCTINVENTORY\RESOURCES\YELLOWGRID.PNG
^E:\LABFILES\LAB 15\EX1\CS\SOLUTION\ADVENTUREWORKS.PRODUCTINVENTORY\ADVENTUREWORKS.PRODUCTINVENTORY\VIEWS\PRODUCTVIEW.RESX
