^E:\LABFILES\MODULE 09\EXERCISE 3 & 4\SOLUTION\ADVENTUREWORKS.WORKORDERS\ADVENTUREWORKS.WORKORDERS\PROPERTIES\RESOURCES.FR-FR.RESX|E:\LABFILES\MODULE 09\EXERCISE 3 & 4\SOLUTION\ADVENTUREWORKS.WORKORDERS\ADVENTUREWORKS.WORKORDERS\PROPERTIES\RESOURCES.RESX
E:\LABFILES\MODULE 09\EXERCISE 3 & 4\SOLUTION\ADVENTUREWORKS.WORKORDERS\ADVENTUREWORKS.WORKORDERS\OBJ\X86\DEBUG\ADVENTUREWORKS.WORKORDERS.PROPERTIES.RESOURCES.RESOURCES
E:\LABFILES\MODULE 09\EXERCISE 3 & 4\SOLUTION\ADVENTUREWORKS.WORKORDERS\ADVENTUREWORKS.WORKORDERS\OBJ\X86\DEBUG\ADVENTUREWORKS.WORKORDERS.PROPERTIES.RESOURCES.FR-FR.RESOURCES
^E:\LABFILES\MODULE 14\SOLUTION\ADVENTUREWORKS.WORKORDERS\ADVENTUREWORKS.WORKORDERS\PROPERTIES\RESOURCES.FR-FR.RESX|E:\LABFILES\MODULE 14\SOLUTION\ADVENTUREWORKS.WORKORDERS\ADVENTUREWORKS.WORKORDERS\PROPERTIES\RESOURCES.RESX
E:\LABFILES\MODULE 14\SOLUTION\ADVENTUREWORKS.WORKORDERS\ADVENTUREWORKS.WORKORDERS\OBJ\X86\DEBUG\ADVENTUREWORKS.WORKORDERS.PROPERTIES.RESOURCES.RESOURCES
E:\LABFILES\MODULE 14\SOLUTION\ADVENTUREWORKS.WORKORDERS\ADVENTUREWORKS.WORKORDERS\OBJ\X86\DEBUG\ADVENTUREWORKS.WORKORDERS.PROPERTIES.RESOURCES.FR-FR.RESOURCES
^E:\LABFILES\MODULE 15\EXERCISES 2 & 3\SOLUTION\ADVENTUREWORKS.WORKORDERS\ADVENTUREWORKS.WORKORDERS\PROPERTIES\RESOURCES.FR-FR.RESX|E:\LABFILES\MODULE 15\EXERCISES 2 & 3\SOLUTION\ADVENTUREWORKS.WORKORDERS\ADVENTUREWORKS.WORKORDERS\PROPERTIES\RESOURCES.RESX
E:\LABFILES\MODULE 15\EXERCISES 2 & 3\SOLUTION\ADVENTUREWORKS.WORKORDERS\ADVENTUREWORKS.WORKORDERS\OBJ\X86\DEBUG\ADVENTUREWORKS.WORKORDERS.PROPERTIES.RESOURCES.FR-FR.RESOURCES
E:\LABFILES\MODULE 15\EXERCISES 2 & 3\SOLUTION\ADVENTUREWORKS.WORKORDERS\ADVENTUREWORKS.WORKORDERS\OBJ\X86\DEBUG\ADVENTUREWORKS.WORKORDERS.PROPERTIES.RESOURCES.RESOURCES
