^E:\LABFILES\LAB 13\SOLUTION\ADVENTUREWORKS.TRANSACTIONHISTORY\PROPERTIES\RESOURCES.RESX
^E:\LABFILES\LAB 13\EX3\SOLUTION\ADVENTUREWORKS.TRANSACTIONHISTORY\PROPERTIES\RESOURCES.RESX
^E:\LABFILES\LAB 13\EX3\STARTER\ADVENTUREWORKS.TRANSACTIONHISTORY\PROPERTIES\RESOURCES.RESX
^E:\LABFILES\LAB 13\EX3\CS\STARTER\ADVENTUREWORKS.TRANSACTIONHISTORY\PROPERTIES\RESOURCES.RESX
^E:\LABFILES\LAB 13\EX3\CS\SOLUTION\ADVENTUREWORKS.TRANSACTIONHISTORY\PROPERTIES\RESOURCES.RESX
^E:\LABFILES\LAB 13\EX4\CS\STARTER\ADVENTUREWORKS.TRANSACTIONHISTORY\PROPERTIES\RESOURCES.RESX
