^E:\LABFILES\LAB 14\SOLUTION\ADVENTUREWORKS.WORKORDERS\ADVENTUREWORKS.WORKORDERS\PROPERTIES\RESOURCES.RESX
^E:\LABFILES\LAB 14\SOLUTION\ADVENTUREWORKS.WORKORDERS\ADVENTUREWORKS.WORKORDERS\PROPERTIES\RESOURCES.FR-FR.RESX
^E:\LABFILES\LAB 14\STARTER\ADVENTUREWORKS.WORKORDERS\ADVENTUREWORKS.WORKORDERS\PROPERTIES\RESOURCES.RESX
^E:\LABFILES\LAB 14\STARTER\ADVENTUREWORKS.WORKORDERS\ADVENTUREWORKS.WORKORDERS\PROPERTIES\RESOURCES.FR-FR.RESX
